Biostat 203B Homework 3
…
sid_lab <- 
  arrow::open_dataset("./labevents.parquet/part-0.parquet", 
    format = "parquet") |>
  filter(subject_id == sid) |>
  collect() |>
  print(width = Inf)

# A tibble: 2,285 × 16
   labevent_id subject_id hadm_id specimen_id itemid order_provider_id
         <int>      <int>   <int>       <int>  <int> <chr>            
 1      153564   10013310      NA     4841989  50887 ""               
 2      153565   10013310      NA     8958046  50934 ""               
 3      153566   10013310      NA     8958046  50947 ""               
 4      153567   10013310      NA     8958046  51003 ""               
 5      153568   10013310      NA     8958046  51678 ""               
 6      153569   10013310      NA    10682517  50933 ""               
 7      153570   10013310      NA    11713499  51133 ""               
 8      153571   10013310      NA    11713499  51146 ""               
 9      153572   10013310      NA    11713499  51200 ""               
10      153573   10013310      NA    11713499  51221 ""               
   charttime           storetime          
   <dttm>              <dttm>             
 1 2153-05-06 03:30:00 NA                 
 2 2153-05-06 03:30:00 2153-05-06 04:22:00
 3 2153-05-06 03:30:00 2153-05-06 04:22:00
 4 2153-05-06 03:30:00 2153-05-06 04:41:00
 5 2153-05-06 03:30:00 2153-05-06 04:22:00
 6 2153-05-06 03:30:00 NA                 
 7 2153-05-06 03:30:00 2153-05-06 04:09:00
 8 2153-05-06 03:30:00 2153-05-06 04:09:00
 9 2153-05-06 03:30:00 2153-05-06 04:09:00
10 2153-05-06 03:30:00 2153-05-06 04:09:00
   value                                    valuenum valueuom ref_range_lower
   <chr>                                       <dbl> <chr>              <dbl>
 1 HOLD.  DISCARD GREATER THAN 24 HRS OLD.     NA    ""                  NA  
 2 5                                            5    ""                  NA  
 3 2                                            2    ""                  NA  
 4 ___                                          2.97 "ng/mL"              0  
 5 14                                          14    ""                  NA  
 6 HOLD.  DISCARD GREATER THAN 4 HOURS OLD.    NA    ""                  NA  
 7 1.90                                         1.9  "K/uL"               1.2
 8 0.2                                          0.2  "%"                  0  
 9 0.1                                          0.1  "%"                  1  
10 32.5                                        32.5  "%"                 34  
   ref_range_upper flag       priority comments
             <dbl> <chr>      <chr>    <chr>   
 1           NA    ""         STAT     "___"   
 2           NA    ""         STAT     ""      
 3           NA    ""         STAT     ""      
 4            0.01 "abnormal" STAT     "___"   
 5           NA    ""         STAT     ""      
 6           NA    ""         STAT     "___"   
 7            3.7  ""         STAT     ""      
 8            1    ""         STAT     ""      
 9            7    "abnormal" STAT     ""      
10           45    "abnormal" STAT     ""      
# ℹ 2,275 more rows

d_icd_proc <- read_csv("~/mimic/hosp/d_icd_procedures.csv.gz") |>
  print(width = Inf)

# A tibble: 85,257 × 3
   icd_code icd_version
   <chr>          <dbl>
 1 0001               9
 2 0002               9
 3 0003               9
 4 0009               9
 5 001               10
 6 0010               9
 7 0011               9
 8 0012               9
 9 0013               9
10 0014               9
   long_title                                                 
   <chr>                                                      
 1 Therapeutic ultrasound of vessels of head and neck         
 2 Therapeutic ultrasound of heart                            
 3 Therapeutic ultrasound of peripheral vascular vessels      
 4 Other therapeutic ultrasound                               
 5 Central Nervous System and Cranial Nerves, Bypass          
 6 Implantation of chemotherapeutic agent                     
 7 Infusion of drotrecogin alfa (activated)                   
 8 Administration of inhaled nitric oxide                     
 9 Injection or infusion of nesiritide                        
10 Injection or infusion of oxazolidinone class of antibiotics
# ℹ 85,247 more rows
…
sid_patients <- read_csv("~/mimic/hosp/patients.csv.gz") |>
  filter(subject_id == sid) |>
  print(width = Inf)

# A tibble: 1 × 6
  subject_id gender anchor_age anchor_year anchor_year_group dod       
       <dbl> <chr>       <dbl>       <dbl> <chr>             <date>    
1   10013310 F              70        2153 2017 - 2019       2153-11-19

d_icd_diag <- read_csv("~/mimic/hosp/d_icd_diagnoses.csv.gz") |>
  print(width = Inf)

# A tibble: 109,775 × 3
   icd_code icd_version long_title                           
   <chr>          <dbl> <chr>                                
 1 0010               9 Cholera due to vibrio cholerae       
 2 0011               9 Cholera due to vibrio cholerae el tor
 3 0019               9 Cholera, unspecified                 
 4 0020               9 Typhoid fever                        
 5 0021               9 Paratyphoid fever A                  
 6 0022               9 Paratyphoid fever B                  
 7 0023               9 Paratyphoid fever C                  
 8 0029               9 Paratyphoid fever, unspecified       
 9 0030               9 Salmonella gastroenteritis           
10 0031               9 Salmonella septicemia                
# ℹ 109,765 more rows

sid_diag <- read_csv("~/mimic/hosp/diagnoses_icd.csv.gz",
    col_types = cols(
      subject_id = col_integer(),
      hadm_id = col_integer(),
      seq_num = col_integer(),
      icd_code = col_character(),
      icd_version = col_integer())) |>
  filter(subject_id == sid) |>
  mutate(long_title = d_icd_diag$long_title[match(icd_code, d_icd_diag$icd_code)]) |>
  print(width = Inf)

# A tibble: 71 × 6
   subject_id  hadm_id seq_num icd_code icd_version
        <int>    <int>   <int> <chr>          <int>
 1   10013310 21243435       1 I222              10
 2   10013310 21243435       2 I5023             10
 3   10013310 21243435       3 I428              10
 4   10013310 21243435       4 E1142             10
 5   10013310 21243435       5 E1165             10
 6   10013310 21243435       6 I213              10
 7   10013310 21243435       7 I110              10
 8   10013310 21243435       8 I2510             10
 9   10013310 21243435       9 M25511            10
10   10013310 21243435      10 E785              10
   long_title                                                                   
   <chr>                                                                        
 1 Subsequent non-ST elevation (NSTEMI) myocardial infarction                   
 2 Acute on chronic systolic (congestive) heart failure                         
 3 Other cardiomyopathies                                                       
 4 Type 2 diabetes mellitus with diabetic polyneuropathy                        
 5 Type 2 diabetes mellitus with hyperglycemia                                  
 6 ST elevation (STEMI) myocardial infarction of unspecified site               
 7 Hypertensive heart disease with heart failure                                
 8 Atherosclerotic heart disease of native coronary artery without angina pecto…
 9 Pain in right shoulder                                                       
10 Hyperlipidemia, unspecified                                                  
# ℹ 61 more rows
…
d_items <- read_csv("~/mimic/icu/d_items.csv.gz") |>
  print(width = Inf)

Rows: 4014 Columns: 9
── Column specification ────────────────────────────────────────────────────────
Delimiter: ","
chr (6): label, abbreviation, linksto, category, unitname, param_type
dbl (3): itemid, lownormalvalue, highnormalvalue

ℹ Use `spec()` to retrieve the full column specification for this data.
ℹ Specify the column types or set `show_col_types = FALSE` to quiet this message.

# A tibble: 4,014 × 9
   itemid label                               abbreviation       linksto       
    <dbl> <chr>                               <chr>              <chr>         
 1 220001 Problem List                        Problem List       chartevents   
 2 220003 ICU Admission date                  ICU Admission date datetimeevents
 3 220045 Heart Rate                          HR                 chartevents   
 4 220046 Heart rate Alarm - High             HR Alarm - High    chartevents   
 5 220047 Heart Rate Alarm - Low              HR Alarm - Low     chartevents   
 6 220048 Heart Rhythm                        Heart Rhythm       chartevents   
 7 220050 Arterial Blood Pressure systolic    ABPs               chartevents   
 8 220051 Arterial Blood Pressure diastolic   ABPd               chartevents   
 9 220052 Arterial Blood Pressure mean        ABPm               chartevents   
10 220056 Arterial Blood Pressure Alarm - Low ABP Alarm - Low    chartevents   
   category            unitname param_type    lownormalvalue highnormalvalue
   <chr>               <chr>    <chr>                  <dbl>           <dbl>
 1 General             <NA>     Text                      NA              NA
 2 ADT                 <NA>     Date and time             NA              NA
 3 Routine Vital Signs bpm      Numeric                   NA              NA
 4 Alarms              bpm      Numeric                   NA              NA
 5 Alarms              bpm      Numeric                   NA              NA
 6 Routine Vital Signs <NA>     Text                      NA              NA
 7 Routine Vital Signs mmHg     Numeric                   90             140
 8 Routine Vital Signs mmHg     Numeric                   60              90
 9 Routine Vital Signs mmHg     Numeric                   NA              NA
10 Alarms              mmHg     Numeric                   NA              NA
# ℹ 4,004 more rows

sid_chart <- 
  arrow::open_dataset("./chartevents.parquet/part-0.parquet", 
    format = "parquet") |>
  filter(subject_id == sid) |>
  collect() |>
  mutate(abbreviation = d_items$abbreviation[match(itemid, d_items$itemid)]) |>
  filter(abbreviation %in% c("HR", "NBPd", "NBPs", "RR", "Temperature F")) |>
  mutate(value = as.numeric(value)) |>
  arrange(itemid, charttime) |>
  print(width = Inf)

# A tibble: 549 × 12
   subject_id  hadm_id  stay_id caregiver_id charttime          
        <int>    <int>    <int>        <int> <dttm>             
 1   10013310 27682188 31203589        86936 2153-05-06 11:22:00
 2   10013310 27682188 31203589        86936 2153-05-06 11:25:00
 3   10013310 27682188 31203589         3749 2153-05-06 12:00:00
 4   10013310 27682188 31203589         3749 2153-05-06 13:00:00
 5   10013310 27682188 31203589         3749 2153-05-06 14:00:00
 6   10013310 27682188 31203589         3749 2153-05-06 15:00:00
 7   10013310 27682188 31203589         3749 2153-05-06 16:00:00
 8   10013310 27682188 31203589         3749 2153-05-06 17:00:00
 9   10013310 27682188 31203589         3749 2153-05-06 18:00:00
10   10013310 27682188 31203589         3749 2153-05-06 19:00:00
   storetime           itemid value valuenum valueuom warning abbreviation
   <dttm>               <int> <dbl>    <dbl> <chr>      <int> <chr>       
 1 2153-05-06 11:26:00 220045    56       56 bpm            0 HR          
 2 2153-05-06 11:26:00 220045    55       55 bpm            0 HR          
 3 2153-05-06 13:13:00 220045    58       58 bpm            0 HR          
 4 2153-05-06 13:13:00 220045    57       57 bpm            0 HR          
 5 2153-05-06 14:16:00 220045    57       57 bpm            0 HR          
 6 2153-05-06 15:18:00 220045    54       54 bpm            0 HR          
 7 2153-05-06 16:13:00 220045    55       55 bpm            0 HR          
 8 2153-05-06 18:15:00 220045    55       55 bpm            0 HR          
 9 2153-05-06 18:15:00 220045    56       56 bpm            0 HR          
10 2153-05-06 19:59:00 220045    55       55 bpm            0 HR          
# ℹ 539 more rows
…
Q2.1 Ingestion

Import icustays.csv.gz as a tibble icustays_tble.

Answer:

icustays_tble <- read_csv("~/mimic/icu/icustays.csv.gz",
  col_types = cols(
    subject_id = col_integer()
  )) |>
  print(width = Inf)

# A tibble: 73,181 × 8
   subject_id  hadm_id  stay_id first_careunit                                  
        <int>    <dbl>    <dbl> <chr>                                           
 1   10000032 29079034 39553978 Medical Intensive Care Unit (MICU)              
 2   10000980 26913865 39765666 Medical Intensive Care Unit (MICU)              
 3   10001217 24597018 37067082 Surgical Intensive Care Unit (SICU)             
 4   10001217 27703517 34592300 Surgical Intensive Care Unit (SICU)             
 5   10001725 25563031 31205490 Medical/Surgical Intensive Care Unit (MICU/SICU)
 6   10001884 26184834 37510196 Medical Intensive Care Unit (MICU)              
 7   10002013 23581541 39060235 Cardiac Vascular Intensive Care Unit (CVICU)    
 8   10002155 20345487 32358465 Medical Intensive Care Unit (MICU)              
 9   10002155 23822395 33685454 Coronary Care Unit (CCU)                        
10   10002155 28994087 31090461 Medical/Surgical Intensive Care Unit (MICU/SICU)
   last_careunit                                    intime             
   <chr>                                            <dttm>             
 1 Medical Intensive Care Unit (MICU)               2180-07-23 14:00:00
 2 Medical Intensive Care Unit (MICU)               2189-06-27 08:42:00
 3 Surgical Intensive Care Unit (SICU)              2157-11-20 19:18:02
 4 Surgical Intensive Care Unit (SICU)              2157-12-19 15:42:24
 5 Medical/Surgical Intensive Care Unit (MICU/SICU) 2110-04-11 15:52:22
 6 Medical Intensive Care Unit (MICU)               2131-01-11 04:20:05
 7 Cardiac Vascular Intensive Care Unit (CVICU)     2160-05-18 10:00:53
 8 Medical Intensive Care Unit (MICU)               2131-03-09 21:33:00
 9 Coronary Care Unit (CCU)                         2129-08-04 12:45:00
10 Medical/Surgical Intensive Care Unit (MICU/SICU) 2130-09-24 00:50:00
   outtime               los
   <dttm>              <dbl>
 1 2180-07-23 23:50:47 0.410
 2 2189-06-27 20:38:27 0.498
 3 2157-11-21 22:08:00 1.12 
 4 2157-12-20 14:27:41 0.948
 5 2110-04-12 23:59:56 1.34 
 6 2131-01-20 08:27:30 9.17 
 7 2160-05-19 17:33:33 1.31 
 8 2131-03-10 18:09:21 0.859
 9 2129-08-10 17:02:38 6.18 
10 2130-09-27 22:13:41 3.89 
# ℹ 73,171 more rows
…
Q3.1 Ingestion

Import admissions.csv.gz as a tibble admissions_tble.

Answer:

admissions_tble <- read_csv("~/mimic/hosp/admissions.csv.gz",
  col_types = cols(
    subject_id = col_integer()
  )) |>
  print(width = Inf)

# A tibble: 431,231 × 16
   subject_id  hadm_id admittime           dischtime           deathtime
        <int>    <dbl> <dttm>              <dttm>              <dttm>   
 1   10000032 22595853 2180-05-06 22:23:00 2180-05-07 17:15:00 NA       
 2   10000032 22841357 2180-06-26 18:27:00 2180-06-27 18:49:00 NA       
 3   10000032 25742920 2180-08-05 23:44:00 2180-08-07 17:50:00 NA       
 4   10000032 29079034 2180-07-23 12:35:00 2180-07-25 17:55:00 NA       
 5   10000068 25022803 2160-03-03 23:16:00 2160-03-04 06:26:00 NA       
 6   10000084 23052089 2160-11-21 01:56:00 2160-11-25 14:52:00 NA       
 7   10000084 29888819 2160-12-28 05:11:00 2160-12-28 16:07:00 NA       
 8   10000108 27250926 2163-09-27 23:17:00 2163-09-28 09:04:00 NA       
 9   10000117 22927623 2181-11-15 02:05:00 2181-11-15 14:52:00 NA       
10   10000117 27988844 2183-09-18 18:10:00 2183-09-21 16:30:00 NA       
   admission_type    admit_provider_id admission_location     discharge_location
   <chr>             <chr>             <chr>                  <chr>             
 1 URGENT            P874LG            TRANSFER FROM HOSPITAL HOME              
 2 EW EMER.          P09Q6Y            EMERGENCY ROOM         HOME              
 3 EW EMER.          P60CC5            EMERGENCY ROOM         HOSPICE           
 4 EW EMER.          P30KEH            EMERGENCY ROOM         HOME              
 5 EU OBSERVATION    P51VDL            EMERGENCY ROOM         <NA>              
 6 EW EMER.          P6957U            WALK-IN/SELF REFERRAL  HOME HEALTH CARE  
 7 EU OBSERVATION    P63AD6            PHYSICIAN REFERRAL     <NA>              
 8 EU OBSERVATION    P38XXV            EMERGENCY ROOM         <NA>              
 9 EU OBSERVATION    P2358X            EMERGENCY ROOM         <NA>              
10 OBSERVATION ADMIT P75S70            WALK-IN/SELF REFERRAL  HOME HEALTH CARE  
   insurance language marital_status race  edregtime          
   <chr>     <chr>    <chr>          <chr> <dttm>             
 1 Other     ENGLISH  WIDOWED        WHITE 2180-05-06 19:17:00
 2 Medicaid  ENGLISH  WIDOWED        WHITE 2180-06-26 15:54:00
 3 Medicaid  ENGLISH  WIDOWED        WHITE 2180-08-05 20:58:00
 4 Medicaid  ENGLISH  WIDOWED        WHITE 2180-07-23 05:54:00
 5 Other     ENGLISH  SINGLE         WHITE 2160-03-03 21:55:00
 6 Medicare  ENGLISH  MARRIED        WHITE 2160-11-20 20:36:00
 7 Medicare  ENGLISH  MARRIED        WHITE 2160-12-27 18:32:00
 8 Other     ENGLISH  SINGLE         WHITE 2163-09-27 16:18:00
 9 Other     ENGLISH  DIVORCED       WHITE 2181-11-14 21:51:00
10 Other     ENGLISH  DIVORCED       WHITE 2183-09-18 08:41:00
   edouttime           hospital_expire_flag
   <dttm>                             <dbl>
 1 2180-05-06 23:30:00                    0
 2 2180-06-26 21:31:00                    0
 3 2180-08-06 01:44:00                    0
 4 2180-07-23 14:00:00                    0
 5 2160-03-04 06:26:00                    0
 6 2160-11-21 03:20:00                    0
 7 2160-12-28 16:07:00                    0
 8 2163-09-28 09:04:00                    0
 9 2181-11-15 09:57:00                    0
10 2183-09-18 20:20:00                    0
# ℹ 431,221 more rows
…
patients_tble <- read_csv("~/mimic/hosp/patients.csv.gz") |>
  print(width = Inf)

Rows: 299712 Columns: 6
── Column specification ────────────────────────────────────────────────────────
Delimiter: ","
chr  (2): gender, anchor_year_group
dbl  (3): subject_id, anchor_age, anchor_year
date (1): dod

ℹ Use `spec()` to retrieve the full column specification for this data.
ℹ Specify the column types or set `show_col_types = FALSE` to quiet this message.

# A tibble: 299,712 × 6
   subject_id gender anchor_age anchor_year anchor_year_group dod       
        <dbl> <chr>       <dbl>       <dbl> <chr>             <date>    
 1   10000032 F              52        2180 2014 - 2016       2180-09-09
 2   10000048 F              23        2126 2008 - 2010       NA        
 3   10000068 F              19        2160 2008 - 2010       NA        
 4   10000084 M              72        2160 2017 - 2019       2161-02-13
 5   10000102 F              27        2136 2008 - 2010       NA        
 6   10000108 M              25        2163 2014 - 2016       NA        
 7   10000115 M              24        2154 2017 - 2019       NA        
 8   10000117 F              48        2174 2008 - 2010       NA        
 9   10000178 F              59        2157 2017 - 2019       NA        
10   10000248 M              34        2192 2014 - 2016       NA        
# ℹ 299,702 more rows
…
